[
    {
        "ParameterKey": "ParentVPCStack",
        "ParameterValue": "kashwpautomation"
    },
    {
        "ParameterKey": "ParentZoneStack",
        "ParameterValue": "WPZone"
    },
    {
        "ParameterKey": "ElbAcmCertificate",
        "ParameterValue": "arn:aws:acm:us-west-2:524289128064:certificate/1b638539-28ef-4f51-97f1-f1edb93c6bf6"
    },
    {
        "ParameterKey": "CloudFrontAcmCertificate",
        "ParameterValue": "arn:aws:acm:us-east-1:524289128064:certificate/6ca56398-4237-4d08-a854-040731d2821c"
    },
    {
        "ParameterKey": "BlogTitle",
        "ParameterValue": "kashtest"
    },
    {
        "ParameterKey": "BlogAdminUsername",
        "ParameterValue": "kshah"
    },
    {
        "ParameterKey": "BlogAdminPassword",
        "ParameterValue": "m28TxeL3@&#!"
    },
    {
        "ParameterKey": "BlogAdminEMail",
        "ParameterValue": "ksfshah3@gmail.com"
    },
    {
        "ParameterKey": "WebServerKeyName",
        "ParameterValue": "kash"
    },
    {
        "ParameterKey": "WebServerInstanceType",
        "ParameterValue": "t2.micro"
    },
    {
        "ParameterKey": "DBMasterUserPassword",
        "ParameterValue": "a61rjk0Mg&Ti"
    }
]